('/usr/share/tcl8.6/../tcl8',
 'tcl8',
 [],
 'DATA',
 [('tcl8/8.5/msgcat-1.6.1.tm',
   '/usr/share/tcl8.6/../tcl8/8.5/msgcat-1.6.1.tm',
   'DATA'),
  ('tcl8/8.5/tcltest-2.5.1.tm',
   '/usr/share/tcl8.6/../tcl8/8.5/tcltest-2.5.1.tm',
   'DATA'),
  ('tcl8/8.6/http-2.9.1.tm',
   '/usr/share/tcl8.6/../tcl8/8.6/http-2.9.1.tm',
   'DATA'),
  ('tcl8/8.4/platform-1.0.14.tm',
   '/usr/share/tcl8.6/../tcl8/8.4/platform-1.0.14.tm',
   'DATA'),
  ('tcl8/8.4/platform/shell-1.1.4.tm',
   '/usr/share/tcl8.6/../tcl8/8.4/platform/shell-1.1.4.tm',
   'DATA')])
